<svg viewBox="0 0 5 20" xmlns="http://www.w3.org/2000/svg">
  <g color="red">

    <rect x="0" y="0" fill="currentcolor"
          width="5"  height="5" opacity="1">
      <animate attributeName="visibility" from="visible" to="hidden" dur="1000ms" repeatCount="indefinite" />
    </rect>

    <rect x="0" y="7" fill="currentcolor"
          width="5" height="5" opacity="1">
      <animate attributeName="visibility" from="visible" to="hidden" dur="1000ms" repeatCount="indefinite" />
    </rect>

    <rect x="0" y="14" fill="currentcolor"
          width="5" height="5" opacity="1">
      <animate attributeName="visibility" from="visible" to="hidden" dur="1000ms" repeatCount="indefinite" />
    </rect>

  </g>
</svg>
